Modify row(s) of a taxonomic database — dct_modify_row • dwctaxon
…
  dct_modify_row(
    sci_name = "Cephalomanes crassum (Copel.) M. G. Price",
    tax_status = "synonym",
    usage_name = "Trichomanes crassum Copel."
  ) |>
  dct_modify_row(
    sci_name = "Trichomanes crassum Copel.",
    tax_status = "accepted"
  ) |>
  dct_validate(
    check_tax_status = FALSE,
    check_mapping_accepted_status = FALSE,
    check_sci_name = FALSE
  )
#> # A tibble: 2,451 × 6
#>    taxonID  acceptedNameUsageID taxonomicStatus taxonRank scientificName modif…¹
#>    <chr>    <chr>               <chr>           <chr>     <chr>          <chr>  
#>  1 54115096 NA                  accepted        species   Cephalomanes … NA     
#>  2 54133783 NA                  accepted        species   Trichomanes c… 2022-1…
#>  3 54115097 54133783            synonym         species   Cephalomanes … 2022-1…
#>  4 54133784 54115098            synonym         species   Trichomanes d… NA     
#>  5 54115098 NA                  accepted        species   Cephalomanes … NA     
#>  6 54133786 54115100            synonym         species   Cephalomanes … NA     
#>  7 54133787 54115100            synonym         species   Cephalomanes … NA     
#>  8 54133788 54115100            synonym         species   Cephalomanes … NA     
#>  9 54133789 54115100            synonym         species   Cephalomanes … NA     
#> 10 54133790 54115100            synonym         species   Lacostea java… NA     
#> # … with 2,441 more rows, and abbreviated variable name ¹​modified
…
updates <- tibble(
  sci_name = c(
    "Cephalomanes atrovirens Presl",
    "Cephalomanes crassum (Copel.) M. G. Price"
  ),
  tax_status = "synonym",
  usage_name = "Trichomanes crassum Copel."
)
dct_filmies |>
  dct_modify_row(args_tbl = updates) |>
  dct_modify_row(
    sci_name = "Trichomanes crassum Copel.",
    tax_status = "accepted"
  )
#> # A tibble: 2,451 × 6
#>    taxonID  acceptedNameUsageID taxonomicStatus taxonRank scientificName modif…¹
#>    <chr>    <chr>               <chr>           <chr>     <chr>          <chr>  
#>  1 54115096 54133783            synonym         species   Cephalomanes … NA     
#>  2 54133783 NA                  accepted        species   Trichomanes c… 2022-1…
#>  3 54115097 54133783            synonym         species   Cephalomanes … NA     
#>  4 54133784 54115098            synonym         species   Trichomanes d… NA     
#>  5 54115098 NA                  accepted        species   Cephalomanes … NA     
#>  6 54133786 54115100            synonym         species   Cephalomanes … NA     
#>  7 54133787 54115100            synonym         species   Cephalomanes … NA     
#>  8 54133788 54115100            synonym         species   Cephalomanes … NA     
#>  9 54133789 54115100            synonym         species   Cephalomanes … NA     
#> 10 54133790 54115100            synonym         species   Lacostea java… NA     
#> # … with 2,441 more rows, and abbreviated variable name ¹​modified
…
