Change the taxonomic status of data in a taxonomic database — dct_change_status • dwctaxon
…
dct_filmies |>
  dct_change_status(
    sci_name = "Cephalomanes crassum (Copel.) M. G. Price",
    new_status = "synonym",
    usage_name = "Trichomanes crassum Copel."
  ) |>
  dct_change_status(
    sci_name = "Trichomanes crassum Copel.",
    new_status = "accepted"
  ) |>
  dct_validate(
    check_tax_status = FALSE,
    check_mapping_strict = FALSE,
    check_sci_name = FALSE)
#> # A tibble: 2,729 × 6
#>    taxonID  acceptedNameUsageID taxonomicStatus          taxon…¹ scien…² modif…³
#>    <chr>    <chr>               <chr>                    <chr>   <chr>   <chr>  
#>  1 54115096 NA                  accepted name            species Cephal… NA     
#>  2 54133783 NA                  accepted                 species Tricho… 2022-1…
#>  3 54115097 54133783            synonym                  species Cephal… 2022-1…
#>  4 54133784 54115098            synonym                  species Tricho… NA     
#>  5 54115098 NA                  accepted name            species Cephal… NA     
#>  6 54133785 54115099            synonym                  species Tricho… NA     
#>  7 54115099 NA                  provisionally accepted … species Cephal… NA     
#>  8 54133786 54115100            synonym                  species Cephal… NA     
#>  9 54133787 54115100            synonym                  species Cephal… NA     
#> 10 54133788 54115100            synonym                  species Cephal… NA     
#> # … with 2,719 more rows, and abbreviated variable names ¹​taxonRank,
#> #   ²​scientificName, ³​modified
…
# Apply a set of changes
library(tibble)
updates <- tibble(
  sci_name = c("Cephalomanes atrovirens Presl",
    "Cephalomanes crassum (Copel.) M. G. Price"),
  new_status = "synonym",
  usage_name = "Trichomanes crassum Copel."
)
dct_filmies |>
  dct_change_status(args_tbl = updates) |>
  dct_change_status(sci_name = "Trichomanes crassum Copel.",
    new_status = "accepted")
#> # A tibble: 2,729 × 6
#>    taxonID  acceptedNameUsageID taxonomicStatus          taxon…¹ scien…² modif…³
#>    <chr>    <chr>               <chr>                    <chr>   <chr>   <chr>  
#>  1 54115096 NA                  accepted name            species Cephal… NA     
#>  2 54133783 NA                  accepted                 species Tricho… 2022-1…
#>  3 54115097 54133783            synonym                  species Cephal… 2022-1…
#>  4 54133784 54115098            synonym                  species Tricho… NA     
#>  5 54115098 NA                  accepted name            species Cephal… NA     
#>  6 54133785 54115099            synonym                  species Tricho… NA     
#>  7 54115099 NA                  provisionally accepted … species Cephal… NA     
#>  8 54133786 54115100            synonym                  species Cephal… NA     
#>  9 54133787 54115100            synonym                  species Cephal… NA     
#> 10 54133788 54115100            synonym                  species Cephal… NA     
#> # … with 2,719 more rows, and abbreviated variable names ¹​taxonRank,
#> #   ²​scientificName, ³​modified
…
