Editing • dwctaxon
…
We start by loading packages needed for this vignette:

library(dwctaxon)
library(tibble) # recommended for pretty-printing of tibbles

The data

dwctaxon comes with an example dataset, taxonomic data of filmy ferns
(family Hymenophyllaceae). Let’s take a quick look at the data:

dct_filmies
#> # A tibble: 2,451 × 5
#>    taxonID  acceptedNameUsageID taxonomicStatus taxonRank scientificName        
#>    <chr>    <chr>               <chr>           <chr>     <chr>                 
#>  1 54115096 NA                  accepted        species   Cephalomanes atrovire…
#>  2 54133783 54115097            synonym         species   Trichomanes crassum C…
#>  3 54115097 NA                  accepted        species   Cephalomanes crassum …
#>  4 54133784 54115098            synonym         species   Trichomanes densinerv…
#>  5 54115098 NA                  accepted        species   Cephalomanes densiner…
#>  6 54133786 54115100            synonym         species   Cephalomanes curvatum…
#>  7 54133787 54115100            synonym         species   Cephalomanes javanica…
#>  8 54133788 54115100            synonym         species   Cephalomanes oblongif…
#>  9 54133789 54115100            synonym         species   Cephalomanes zollinge…
#> 10 54133790 54115100            synonym         species   Lacostea javanica (Bl…
#> # … with 2,441 more rows
…
