Real World Example • dwctaxon
…
# OK to delete the tempo

# Take a peak at the data
vascan
#> # A tibble: 32,770 × 24
#>       id taxonID acceptedNameUsageID parentNameUsageID nameAccordingToID    scientificName acceptedNameUsage parentNameUsage nameAccordingTo
#>    <dbl>   <dbl>               <dbl>             <dbl> <chr>                <chr>          <chr>             <chr>           <chr>          
#>  1    73      73                  73                NA http://dx.doi.org/1… Equisetopsida… Equisetopsida C.… NA              Chase, M.W. & …
#>  2    26      26                  26                73 http://dx.doi.org/1… Equisetidae W… Equisetidae Warm… Equisetopsida … Chase, M.W. & …
#>  3    25      25                  25                26 http://www.jstor.or… Equisetales d… Equisetales de C… Equisetidae Wa… Smith, A.R., K…
#>  4   128     128                 128                25 http://www.jstor.or… Equisetaceae … Equisetaceae Mic… Equisetales de… Smith, A.R., K…
#>  5  1142    1142                1142               128 http://www.efloras.… Equisetum Lin… Equisetum Linnae… Equisetaceae M… FNA Editorial …
#>  6  2004    2004                2004              1142 http://www.efloras.… Equisetum sub… Equisetum subg. … Equisetum Linn… FNA Editorial …
#>  7  5467    5467                5467              2004 http://www.efloras.… Equisetum flu… Equisetum fluvia… Equisetum subg… FNA Editorial …
#>  8  5466    5466                5466              2004 http://www.efloras.… Equisetum arv… Equisetum arvens… Equisetum subg… FNA Editorial …
#>  9  5472    5472                5472              2004 http://www.efloras.… Equisetum pra… Equisetum praten… Equisetum subg… FNA Editorial …
#> 10  5471    5471                5471              2004 http://www.efloras.… Equisetum pal… Equisetum palust… Equisetum subg… FNA Editorial …
#> # ℹ 32,760 more rows
#> # ℹ 15 more variables: higherClassification <chr>, class <chr>, order <chr>, family <chr>, genus <chr>, subgenus <chr>,
#> #   specificEpithet <chr>, infraspecificEpithet <chr>, taxonRank <chr>, scientificNameAuthorship <chr>, taxonomicStatus <chr>,
#> #   modified <chr>, license <chr>, bibliographicCitation <chr>, references <chr>
…
Looks like we’ve got problems…

To dig into these in more detail, let’s run
dct_validate() again, but this time output a summary of
errors.

validation_res <- dct_validate(vascan, on_fail = "summary")
#> Warning in assert_that_d(length(duplicated_sci_name) == 0, data = tibble::tibble(taxonID = bad_tax_id, : scientificName detected with
#> duplicated value
#> Warning in assert_that_d(length(bad_col_names) == 0, data = tibble::tibble(error = err_msg, : Invalid column names detected: id

validation_res
#> # A tibble: 27 × 4
#>    taxonID scientificName                                       error                                         check          
#>      <dbl> <chr>                                                <glue>                                        <chr>          
#>  1      NA NA                                                   Invalid column names detected: id             check_col_names
#>  2   10170 Scilla esculenta Ker Gawler                          scientificName detected with duplicated value check_sci_name 
#>  3   10664 Arnica monocephala Rydberg                           scientificName detected with duplicated value check_sci_name 
#>  4   10665 Arnica pedunculata Rydberg                           scientificName detected with duplicated value check_sci_name 
#>  5   16398 Trifolium tridentatum Lindley                        scientificName detected with duplicated value check_sci_name 
#>  6   17569 Oenothera angustissima R.R. Gates                    scientificName detected with duplicated value check_sci_name 
#>  7   20099 Spiraea discolor Pursh                               scientificName detected with duplicated value check_sci_name 
#>  8   21522 Viola discurrens Greene                              scientificName detected with duplicated value check_sci_name 
#>  9   21946 Cogswellia simplex (Nuttall ex S. Watson) M.E. Jones scientificName detected with duplicated value check_sci_name 
#> 10   24660 Scilla esculenta Ker Gawler                          scientificName detected with duplicated value check_sci_name 
#> # ℹ 17 more rows
…
Investigate errors

Duplicate names

Let’s take a closer look at some of those duplicated names.

dup_names <-
  validation_res %>%
  filter(grepl("scientificName detected with duplicated value", error)) %>%
  arrange(scientificName)

dup_names
#> # A tibble: 26 × 4
#>    taxonID scientificName                                       error                                         check         
#>      <dbl> <chr>                                                <glue>                                        <chr>         
#>  1   29934 Aralia triphylla Poiret                              scientificName detected with duplicated value check_sci_name
#>  2   31463 Aralia triphylla Poiret                              scientificName detected with duplicated value check_sci_name
#>  3   10664 Arnica monocephala Rydberg                           scientificName detected with duplicated value check_sci_name
#>  4   25705 Arnica monocephala Rydberg                           scientificName detected with duplicated value check_sci_name
#>  5   10665 Arnica pedunculata Rydberg                           scientificName detected with duplicated value check_sci_name
#>  6   25704 Arnica pedunculata Rydberg                           scientificName detected with duplicated value check_sci_name
#>  7   21946 Cogswellia simplex (Nuttall ex S. Watson) M.E. Jones scientificName detected with duplicated value check_sci_name
#>  8   32013 Cogswellia simplex (Nuttall ex S. Watson) M.E. Jones scientificName detected with duplicated value check_sci_name
#>  9   25350 Ginseng trifolium (Linnaeus) Alph. Wood              scientificName detected with duplicated value check_sci_name
#> 10   31464 Ginseng trifolium (Linnaeus) Alph. Wood              scientificName detected with duplicated value check_sci_name
#> # ℹ 16 more rows

We can join back to the original data to investigate these names.

inner_join(
  select(dup_names, taxonID),
  vascan,
  by = "taxonID"
) %>%
  # Just look at the first 6 columns
  select(1:6)
#> # A tibble: 26 × 6
#>    taxonID    id acceptedNameUsageID parentNameUsageID nameAccordingToID                                                 scientificName     
#>      <dbl> <dbl>               <dbl>             <dbl> <chr>                                                             <chr>              
#>  1   29934 29934                2695                NA NA                                                                Aralia triphylla P…
#>  2   31463 31463                2695                NA NA                                                                Aralia triphylla P…
#>  3   10664 10664                2857                NA http://www.efloras.org/volume_page.aspx?volume_id=1021&flora_id=1 Arnica monocephala…
#>  4   25705 25705                2857                NA http://www.botanicus.org/item/31753003488092                      Arnica monocephala…
#>  5   10665 10665                2857                NA http://www.efloras.org/volume_page.aspx?volume_id=1021&flora_id=1 Arnica pedunculata…
#>  6   25704 25704                2857                NA http://www.botanicus.org/item/31753003488092                      Arnica pedunculata…
#>  7   21946 21946                2613                NA NA                                                                Cogswellia simplex…
#>  8   32013 32013                2613                NA http://www.tropicos.org                                           Cogswellia simplex…
#>  9   25350 25350                2695                NA NA                                                                Ginseng trifolium …
#> 10   31464 31464                2695                NA NA                                                                Ginseng trifolium …
#> # ℹ 16 more rows

We see that in some cases, multiple entries for the exact same
scientific name (for example, Arnica monocephala Rydberg)
differ only in the value for nameAccordingToID.

So this seems like something the database manager should fix.

Invalid column names

Let’s see what is in the id column.

vascan %>%
  select(id)
#> # A tibble: 32,770 × 1
#>       id
#>    <dbl>
#>  1    73
#>  2    26
#>  3    25
#>  4   128
#>  5  1142
#>  6  2004
#>  7  5467
#>  8  5466
#>  9  5472
#> 10  5471
#> # ℹ 32,760 more rows
…
vascan_fixed <-
  vascan %>%
  filter(!duplicated(scientificName))

Next, we will run validation again, but this time allow
id as an extra column.

dct_validate(
  vascan_fixed,
  extra_cols = "id"
)
#> # A tibble: 32,757 × 24
#>       id taxonID acceptedNameUsageID parentNameUsageID nameAccordingToID    scientificName acceptedNameUsage parentNameUsage nameAccordingTo
#>    <dbl>   <dbl>               <dbl>             <dbl> <chr>                <chr>          <chr>             <chr>           <chr>          
#>  1    73      73                  73                NA http://dx.doi.org/1… Equisetopsida… Equisetopsida C.… NA              Chase, M.W. & …
#>  2    26      26                  26                73 http://dx.doi.org/1… Equisetidae W… Equisetidae Warm… Equisetopsida … Chase, M.W. & …
#>  3    25      25                  25                26 http://www.jstor.or… Equisetales d… Equisetales de C… Equisetidae Wa… Smith, A.R., K…
#>  4   128     128                 128                25 http://www.jstor.or… Equisetaceae … Equisetaceae Mic… Equisetales de… Smith, A.R., K…
#>  5  1142    1142                1142               128 http://www.efloras.… Equisetum Lin… Equisetum Linnae… Equisetaceae M… FNA Editorial …
#>  6  2004    2004                2004              1142 http://www.efloras.… Equisetum sub… Equisetum subg. … Equisetum Linn… FNA Editorial …
#>  7  5467    5467                5467              2004 http://www.efloras.… Equisetum flu… Equisetum fluvia… Equisetum subg… FNA Editorial …
#>  8  5466    5466                5466              2004 http://www.efloras.… Equisetum arv… Equisetum arvens… Equisetum subg… FNA Editorial …
#>  9  5472    5472                5472              2004 http://www.efloras.… Equisetum pra… Equisetum praten… Equisetum subg… FNA Editorial …
#> 10  5471    5471                5471              2004 http://www.efloras.… Equisetum pal… Equisetum palust… Equisetum subg… FNA Editorial …
#> # ℹ 32,747 more rows
#> # ℹ 15 more variables: higherClassification <chr>, class <chr>, order <chr>, family <chr>, genus <chr>, subgenus <chr>,
#> #   specificEpithet <chr>, infraspecificEpithet <chr>, taxonRank <chr>, scientificNameAuthorship <chr>, taxonomicStatus <chr>,
#> #   modified <chr>, license <chr>, bibliographicCitation <chr>, references <chr>
…
