Validation • dwctaxon
…
Start by loading packages and setting the random number generator
seed since this vignette involves some random samples.

library(dwctaxon)
library(tidyverse) # for tidy data wrangling

set.seed(12345)

The data

As before, we will use the example dataset that comes with dwctaxon,
dct_filmies:

dct_filmies
#> # A tibble: 2,451 × 5
#>    taxonID  acceptedNameUsageID taxonomicStatus taxonRank scientificName        
#>    <chr>    <chr>               <chr>           <chr>     <chr>                 
#>  1 54115096 NA                  accepted        species   Cephalomanes atrovire…
#>  2 54133783 54115097            synonym         species   Trichomanes crassum C…
#>  3 54115097 NA                  accepted        species   Cephalomanes crassum …
#>  4 54133784 54115098            synonym         species   Trichomanes densinerv…
#>  5 54115098 NA                  accepted        species   Cephalomanes densiner…
#>  6 54133786 54115100            synonym         species   Cephalomanes curvatum…
#>  7 54133787 54115100            synonym         species   Cephalomanes javanica…
#>  8 54133788 54115100            synonym         species   Cephalomanes oblongif…
#>  9 54133789 54115100            synonym         species   Cephalomanes zollinge…
#> 10 54133790 54115100            synonym         species   Lacostea javanica (Bl…
#> # … with 2,441 more rows
…
filmies_dirty <-
  dct_filmies |>
  # Duplicate some rows at the end
  bind_rows(tail(dct_filmies)) |>
  # Insert bad values for `acceptedNameUsageID` of 5 random rows
  rows_update(
    tibble(
      taxonID = sample(dct_filmies$taxonID, 5),
      acceptedNameUsageID = sample(letters, 5)
    ),
    by = "taxonID"
  )

filmies_dirty
#> # A tibble: 2,457 × 5
#>    taxonID  acceptedNameUsageID taxonomicStatus taxonRank scientificName        
#>    <chr>    <chr>               <chr>           <chr>     <chr>                 
#>  1 54115096 NA                  accepted        species   Cephalomanes atrovire…
#>  2 54133783 54115097            synonym         species   Trichomanes crassum C…
#>  3 54115097 NA                  accepted        species   Cephalomanes crassum …
#>  4 54133784 54115098            synonym         species   Trichomanes densinerv…
#>  5 54115098 NA                  accepted        species   Cephalomanes densiner…
#>  6 54133786 54115100            synonym         species   Cephalomanes curvatum…
#>  7 54133787 54115100            synonym         species   Cephalomanes javanica…
#>  8 54133788 54115100            synonym         species   Cephalomanes oblongif…
#>  9 54133789 54115100            synonym         species   Cephalomanes zollinge…
#> 10 54133790 54115100            synonym         species   Lacostea javanica (Bl…
#> # … with 2,447 more rows
…
